R e duckdb
…
words$word_clean

[[1]]
[1] "god"     "created" "heaven"  "earth"  

duckdb::dbDisconnect(con, shutdown = TRUE)

Casos de uso: Dados de COVID 19

url <- "https://raw.githubusercontent.com/CSSEGISandData/COVID-19/master/csse_covid_19_data/csse_covid_19_time_series/time_series_covid19_confirmed_global.csv"

read.csv(url, stringsAsFactors = FALSE) |>
  dplyr::as_tibble()

# A tibble: 289 × 1,147
   Province.State         Country.Region   Lat   Long X1.22.20 X1.23.20 X1.24.20
   <chr>                  <chr>          <dbl>  <dbl>    <int>    <int>    <int>
 1 ""                     Afghanistan     33.9  67.7         0        0        0
 2 ""                     Albania         41.2  20.2         0        0        0
 3 ""                     Algeria         28.0   1.66        0        0        0
 4 ""                     Andorra         42.5   1.52        0        0        0
 5 ""                     Angola         -11.2  17.9         0        0        0
 6 ""                     Antarctica     -71.9  23.3         0        0        0
 7 ""                     Antigua and B…  17.1 -61.8         0        0        0
 8 ""                     Argentina      -38.4 -63.6         0        0        0
 9 ""                     Armenia         40.1  45.0         0        0        0
10 "Australian Capital T… Australia      -35.5 149.          0        0        0
# ℹ 279 more rows
# ℹ 1,140 more variables: X1.25.20 <int>, X1.26.20 <int>, X1.27.20 <int>,
#   X1.28.20 <int>, X1.29.20 <int>, X1.30.20 <int>, X1.31.20 <int>,
#   X2.1.20 <int>, X2.2.20 <int>, X2.3.20 <int>, X2.4.20 <int>, X2.5.20 <int>,
#   X2.6.20 <int>, X2.7.20 <int>, X2.8.20 <int>, X2.9.20 <int>, X2.10.20 <int>,
#   X2.11.20 <int>, X2.12.20 <int>, X2.13.20 <int>, X2.14.20 <int>,
#   X2.15.20 <int>, X2.16.20 <int>, X2.17.20 <int>, X2.18.20 <int>, …
…
